{
  "actions" : [ {
    "module" : "init",
    "date" : "2022-12-15T17:14:00.578840Z",
    "properties" : {
      "packageName" : "fr.samadou.myerp",
      "projectName" : "MyErp",
      "baseName" : "myerp",
      "endOfLine" : "lf",
      "indentSize" : 2
    }
  }, {
    "module" : "maven-java",
    "date" : "2022-12-15T17:14:01.306617Z",
    "properties" : {
      "packageName" : "fr.samadou.myerp",
      "projectName" : "MyErp",
      "baseName" : "myerp",
      "endOfLine" : "lf",
      "indentSize" : 2
    }
  }, {
    "module" : "prettier",
    "date" : "2022-12-15T17:14:01.408885Z",
    "properties" : {
      "packageName" : "fr.samadou.myerp",
      "projectName" : "MyErp",
      "baseName" : "myerp",
      "endOfLine" : "lf",
      "indentSize" : 2
    }
  }, {
    "module" : "java-base",
    "date" : "2022-12-15T17:14:01.520439Z",
    "properties" : {
      "packageName" : "fr.samadou.myerp",
      "projectName" : "MyErp",
      "baseName" : "myerp",
      "endOfLine" : "lf",
      "indentSize" : 2
    }
  }, {
    "module" : "application-service-hexagonal-architecture-documentation",
    "date" : "2022-12-15T18:45:39.563120Z",
    "properties" : {
      "packageName" : "fr.samadou.myerp",
      "projectName" : "MyErp",
      "baseName" : "myerp",
      "endOfLine" : "lf",
      "indentSize" : 2,
      "serverPort" : 9090
    }
  }, {
    "module" : "infinitest-filters",
    "date" : "2022-12-15T18:45:42.816344Z",
    "properties" : {
      "packageName" : "fr.samadou.myerp",
      "projectName" : "MyErp",
      "baseName" : "myerp",
      "endOfLine" : "lf",
      "indentSize" : 2,
      "serverPort" : 9090
    }
  }, {
    "module" : "spring-boot",
    "date" : "2022-12-15T18:45:43.649621Z",
    "properties" : {
      "packageName" : "fr.samadou.myerp",
      "projectName" : "MyErp",
      "baseName" : "myerp",
      "endOfLine" : "lf",
      "indentSize" : 2,
      "serverPort" : 9090
    }
  }, {
    "module" : "spring-boot-tomcat",
    "date" : "2022-12-15T18:45:46.694385Z",
    "properties" : {
      "packageName" : "fr.samadou.myerp",
      "projectName" : "MyErp",
      "baseName" : "myerp",
      "endOfLine" : "lf",
      "indentSize" : 2,
      "serverPort" : 9090
    }
  }, {
    "module" : "spring-boot-cucumber",
    "date" : "2022-12-15T18:45:49.830195Z",
    "properties" : {
      "packageName" : "fr.samadou.myerp",
      "projectName" : "MyErp",
      "baseName" : "myerp",
      "endOfLine" : "lf",
      "indentSize" : 2,
      "serverPort" : 9090
    }
  }, {
    "module" : "java-enums",
    "date" : "2022-12-15T18:47:43.433120Z",
    "properties" : {
      "packageName" : "fr.samadou.myerp",
      "projectName" : "MyErp",
      "baseName" : "myerp",
      "endOfLine" : "lf",
      "indentSize" : 2,
      "serverPort" : 9090
    }
  }, {
    "module" : "internationalized-errors",
    "date" : "2022-12-15T18:47:46.353938Z",
    "properties" : {
      "packageName" : "fr.samadou.myerp",
      "projectName" : "MyErp",
      "baseName" : "myerp",
      "endOfLine" : "lf",
      "indentSize" : 2,
      "serverPort" : 9090
    }
  } ]
}